{
    "fluentMethods": true,
    "relationships": [],
    "fields": [
        {
            "fieldName": "name",
            "fieldType": "Situation",
            "fieldValues": "Aberto,Em andamento,Fechado,Cancelado,Rejeitado "
        }
    ],
    "changelogDate": "20170728044121",
    "dto": "no",
    "service": "no",
    "entityTableName": "status",
    "pagination": "no"
}
